{
    "/js/app.js": "/js/app.js",
    "/css/app.css": "/css/app.css",
    "/css/login.css": "/css/login.css",
    "/css/usuarios.css": "/css/usuarios.css",
    "/css/editarUsuario.css": "/css/editarUsuario.css",
    "/css/activos.css": "/css/activos.css"
}
